  0
SECTION
  2
BLOCKS
  0
ENDSEC
  0
SECTION
  2
ENTITIES
  0
LINE
  8
0
 10
-92.3504
 20
-70.6213
 11
-92.2499
 21
-71.5961
  0
LINE
  8
0
 10
-92.2499
 20
-71.5961
 11
-91.5416
 21
-78.4657
  0
LINE
  8
0
 10
-91.5416
 20
-78.4657
 11
-91.5005
 21
-78.4995
  0
LINE
  8
0
 10
-91.5005
 20
-78.4995
 11
-91.4642
 21
-78.5293
  0
LINE
  8
0
 10
-91.4642
 20
-78.5293
 11
-78.4197
 21
-89.2421
  0
LINE
  8
0
 10
-78.4197
 20
-89.2421
 11
-75.1445
 21
-90.8579
  0
LINE
  8
0
 10
-75.1445
 20
-90.8579
 11
-72.7933
 21
-91.1795
  0
LINE
  8
0
 10
-72.7933
 20
-91.1795
 11
-59.7957
 21
-102.672
  0
LINE
  8
0
 10
-59.7957
 20
-102.672
 11
-58.7642
 21
-102.667
  0
LINE
  8
0
 10
-58.7642
 20
-102.667
 11
-49.6495
 21
-102.623
  0
LINE
  8
0
 10
-49.6495
 20
-102.623
 11
-49.5419
 21
-102.555
  0
LINE
  8
0
 10
-49.5419
 20
-102.555
 11
-49.5417
 21
-102.554
  0
LINE
  8
0
 10
-49.5417
 20
-102.554
 11
-49.5417
 21
-102.554
  0
LINE
  8
0
 10
-49.5417
 20
-102.554
 11
-49.4975
 21
-102.526
  0
LINE
  8
0
 10
-49.4975
 20
-102.526
 11
-49.4975
 21
-102.526
  0
LINE
  8
0
 10
-49.4975
 20
-102.526
 11
-44.8626
 21
-97.8711
  0
LINE
  8
0
 10
-44.8626
 20
-97.8711
 11
-42.5652
 21
-95.5638
  0
LINE
  8
0
 10
-42.5652
 20
-95.5638
 11
-40.954
 21
-93.3462
  0
LINE
  8
0
 10
-40.954
 20
-93.3462
 11
-38.3417
 21
-89.7506
  0
LINE
  8
0
 10
-38.3417
 20
-89.7506
 11
-38.3417
 21
-89.7506
  0
LINE
  8
0
 10
-38.3417
 20
-89.7506
 11
-38.3417
 21
-89.7506
  0
LINE
  8
0
 10
-38.3417
 20
-89.7506
 11
-38.3081
 21
-89.7043
  0
LINE
  8
0
 10
-38.3081
 20
-89.7043
 11
-38.2924
 21
-89.6827
  0
LINE
  8
0
 10
-38.2924
 20
-89.6827
 11
-38.6476
 21
-87.991
  0
LINE
  8
0
 10
-38.6476
 20
-87.991
 11
-39.4075
 21
-84.372
  0
LINE
  8
0
 10
-39.4075
 20
-84.372
 11
-35.5893
 21
-80.1314
  0
LINE
  8
0
 10
-35.5893
 20
-80.1314
 11
-35.589
 21
-80.1312
  0
LINE
  8
0
 10
-35.589
 20
-80.1312
 11
-30.5325
 21
-74.5154
  0
LINE
  8
0
 10
-30.5325
 20
-74.5154
 11
-27.9417
 21
-72.7201
  0
LINE
  8
0
 10
-27.9417
 20
-72.7201
 11
-27.9414
 21
-72.7198
  0
LINE
  8
0
 10
-27.9414
 20
-72.7198
 11
-19.1831
 21
-66.6508
  0
LINE
  8
0
 10
-19.1831
 20
-66.6508
 11
-14.9425
 21
-65.8884
  0
LINE
  8
0
 10
-14.9425
 20
-65.8884
 11
-6.56322
 21
-64.3818
  0
LINE
  8
0
 10
-6.56322
 20
-64.3818
 11
1.40299
 21
-64.3818
  0
LINE
  8
0
 10
1.40299
 20
-64.3818
 11
1.45114
 21
-64.3818
  0
LINE
  8
0
 10
1.45114
 20
-64.3818
 11
13.0934
 21
-64.3818
  0
LINE
  8
0
 10
13.0934
 20
-64.3818
 11
17.2418
 21
-57.0331
  0
LINE
  8
0
 10
17.2418
 20
-57.0331
 11
19.3283
 21
-53.3369
  0
LINE
  8
0
 10
19.3283
 20
-53.3369
 11
50.5145
 21
-53.3369
  0
LINE
  8
0
 10
50.5145
 20
-53.3369
 11
54.2818
 21
-49.5994
  0
LINE
  8
0
 10
54.2818
 20
-49.5994
 11
57.4244
 21
-46.2849
  0
LINE
  8
0
 10
57.4244
 20
-46.2849
 11
57.6567
 21
-45.5709
  0
LINE
  8
0
 10
57.6567
 20
-45.5709
 11
57.7929
 21
-45.1519
  0
LINE
  8
0
 10
57.7929
 20
-45.1519
 11
57.7913
 21
-45.0837
  0
LINE
  8
0
 10
57.7913
 20
-45.0837
 11
57.4244
 21
-29.3713
  0
LINE
  8
0
 10
57.4244
 20
-29.3713
 11
57.381
 21
-28.8897
  0
LINE
  8
0
 10
57.381
 20
-28.8897
 11
57.3767
 21
-28.8417
  0
LINE
  8
0
 10
57.3767
 20
-28.8417
 11
57.3767
 21
-28.8417
  0
LINE
  8
0
 10
57.3767
 20
-28.8417
 11
57.0077
 21
-20.7799
  0
LINE
  8
0
 10
57.0077
 20
-20.7799
 11
56.9892
 21
-20.375
  0
LINE
  8
0
 10
56.9892
 20
-20.375
 11
56.9892
 21
-3.625
  0
LINE
  8
0
 10
56.9892
 20
-3.625
 11
57.0077
 21
-3.22007
  0
LINE
  8
0
 10
57.0077
 20
-3.22007
 11
57.3767
 21
4.84166
  0
LINE
  8
0
 10
57.3767
 20
4.84166
 11
57.3767
 21
4.84166
  0
LINE
  8
0
 10
57.3767
 20
4.84166
 11
57.381
 21
4.88968
  0
LINE
  8
0
 10
57.381
 20
4.88968
 11
57.4244
 21
5.37125
  0
LINE
  8
0
 10
57.4244
 20
5.37125
 11
57.7907
 21
21.0554
  0
LINE
  8
0
 10
57.7907
 20
21.0554
 11
57.8745
 21
23.3767
  0
LINE
  8
0
 10
57.8745
 20
23.3767
 11
58.0767
 21
28.9771
  0
LINE
  8
0
 10
58.0767
 20
28.9771
 11
58.3625
 21
34.657
  0
LINE
  8
0
 10
58.3625
 20
34.657
 11
58.8109
 21
43.5696
  0
LINE
  8
0
 10
58.8109
 20
43.5696
 11
58.5574
 21
45.2492
  0
LINE
  8
0
 10
58.5574
 20
45.2492
 11
58.3958
 21
46.3196
  0
LINE
  8
0
 10
58.3958
 20
46.3196
 11
54.9039
 21
49.4941
  0
LINE
  8
0
 10
54.9039
 20
49.4941
 11
51.7275
 21
52.3818
  0
LINE
  8
0
 10
51.7275
 20
52.3818
 11
41.5828
 21
52.3818
  0
LINE
  8
0
 10
41.5828
 20
52.3818
 11
34.8796
 21
52.3818
  0
LINE
  8
0
 10
34.8796
 20
52.3818
 11
32.6292
 21
52.3818
  0
LINE
  8
0
 10
32.6292
 20
52.3818
 11
32.5912
 21
52.3818
  0
LINE
  8
0
 10
32.5912
 20
52.3818
 11
31.2646
 21
52.3818
  0
LINE
  8
0
 10
31.2646
 20
52.3818
 11
20.8232
 21
52.3818
  0
LINE
  8
0
 10
20.8232
 20
52.3818
 11
20.7828
 21
52.3818
  0
LINE
  8
0
 10
20.7828
 20
52.3818
 11
14.7325
 21
52.3818
  0
LINE
  8
0
 10
14.7325
 20
52.3818
 11
12.2134
 21
58.5348
  0
LINE
  8
0
 10
12.2134
 20
58.5348
 11
10.9454
 21
61.6318
  0
LINE
  8
0
 10
10.9454
 20
61.6318
 11
10.1262
 21
63.4592
  0
LINE
  8
0
 10
10.1262
 20
63.4592
 11
9.71262
 21
64.3818
  0
LINE
  8
0
 10
9.71262
 20
64.3818
 11
-0.175833
 21
64.3818
  0
LINE
  8
0
 10
-0.175833
 20
64.3818
 11
-0.220621
 21
64.3818
  0
LINE
  8
0
 10
-0.220621
 20
64.3818
 11
-6.56322
 21
64.3818
  0
LINE
  8
0
 10
-6.56322
 20
64.3818
 11
-9.63592
 21
66.2481
  0
LINE
  8
0
 10
-9.63592
 20
66.2481
 11
-9.63603
 21
66.2482
  0
LINE
  8
0
 10
-9.63603
 20
66.2482
 11
-11.2062
 21
67.2018
  0
LINE
  8
0
 10
-11.2062
 20
67.2018
 11
-11.2062
 21
67.2018
  0
LINE
  8
0
 10
-11.2062
 20
67.2018
 11
-21.0884
 21
67.2018
  0
LINE
  8
0
 10
-21.0884
 20
67.2018
 11
-21.1318
 21
67.2018
  0
LINE
  8
0
 10
-21.1318
 20
67.2018
 11
-27.1339
 21
67.2018
  0
LINE
  8
0
 10
-27.1339
 20
67.2018
 11
-27.7168
 21
66.4553
  0
LINE
  8
0
 10
-27.7168
 20
66.4553
 11
-29.3357
 21
64.3818
  0
LINE
  8
0
 10
-29.3357
 20
64.3818
 11
-40.5358
 21
64.3818
  0
LINE
  8
0
 10
-40.5358
 20
64.3818
 11
-44.5868
 21
64.3818
  0
LINE
  8
0
 10
-44.5868
 20
64.3818
 11
-47.0969
 21
64.3818
  0
LINE
  8
0
 10
-47.0969
 20
64.3818
 11
-47.1178
 21
64.3818
  0
LINE
  8
0
 10
-47.1178
 20
64.3818
 11
-47.8201
 21
64.3818
  0
LINE
  8
0
 10
-47.8201
 20
64.3818
 11
-59.2709
 21
64.3818
  0
LINE
  8
0
 10
-59.2709
 20
64.3818
 11
-62.4155
 21
64.3818
  0
LINE
  8
0
 10
-62.4155
 20
64.3818
 11
-62.4313
 21
64.3818
  0
LINE
  8
0
 10
-62.4313
 20
64.3818
 11
-63.5613
 21
62.8801
  0
LINE
  8
0
 10
-63.5613
 20
62.8801
 11
-67.5196
 21
57.6196
  0
LINE
  8
0
 10
-67.5196
 20
57.6196
 11
-74.5196
 21
50.6196
  0
LINE
  8
0
 10
-74.5196
 20
50.6196
 11
-77.8161
 21
39.2004
  0
LINE
  8
0
 10
-77.8161
 20
39.2004
 11
-78.7571
 21
35.9405
  0
LINE
  8
0
 10
-78.7571
 20
35.9405
 11
-79.0646
 21
34.4555
  0
LINE
  8
0
 10
-79.0646
 20
34.4555
 11
-79.8603
 21
30.6137
  0
LINE
  8
0
 10
-79.8603
 20
30.6137
 11
-80.5434
 21
25.5148
  0
LINE
  8
0
 10
-80.5434
 20
25.5148
 11
-82.0538
 21
14.2413
  0
LINE
  8
0
 10
-82.0538
 20
14.2413
 11
-82.1734
 21
12.4245
  0
LINE
  8
0
 10
-82.1734
 20
12.4245
 11
-82.4301
 21
8.525
  0
LINE
  8
0
 10
-82.4301
 20
8.525
 11
-82.4301
 21
-8.525
  0
LINE
  8
0
 10
-82.4301
 20
-8.525
 11
-82.1734
 21
-12.4245
  0
LINE
  8
0
 10
-82.1734
 20
-12.4245
 11
-82.0538
 21
-14.2413
  0
LINE
  8
0
 10
-82.0538
 20
-14.2413
 11
-80.5434
 21
-25.5148
  0
LINE
  8
0
 10
-80.5434
 20
-25.5148
 11
-79.8603
 21
-30.6137
  0
LINE
  8
0
 10
-79.8603
 20
-30.6137
 11
-79.0661
 21
-33.753
  0
LINE
  8
0
 10
-79.0661
 20
-33.753
 11
-77.7342
 21
-39.0171
  0
LINE
  8
0
 10
-77.7342
 20
-39.0171
 11
-81.4036
 21
-42.0961
  0
LINE
  8
0
 10
-81.4036
 20
-42.0961
 11
-84.9474
 21
-45.0697
  0
LINE
  8
0
 10
-84.9474
 20
-45.0697
 11
-84.9474
 21
-45.0697
  0
LINE
  8
0
 10
-84.9474
 20
-45.0697
 11
-84.9715
 21
-45.0899
  0
LINE
  8
0
 10
-84.9715
 20
-45.0899
 11
-85.7181
 21
-46.0003
  0
LINE
  8
0
 10
-85.7181
 20
-46.0003
 11
-86.945
 21
-47.4964
  0
LINE
  8
0
 10
-86.945
 20
-47.4964
 11
-84.7689
 21
-53.488
  0
LINE
  8
0
 10
-84.7689
 20
-53.488
 11
-83.353
 21
-57.3863
  0
LINE
  8
0
 10
-83.353
 20
-57.3863
 11
-86.7026
 21
-61.6735
  0
LINE
  8
0
 10
-86.7026
 20
-61.6735
 11
-86.7028
 21
-61.6738
  0
LINE
  8
0
 10
-86.7028
 20
-61.6738
 11
-89.1309
 21
-64.7816
  0
LINE
  8
0
 10
-89.1309
 20
-64.7816
 11
-90.8911
 21
-67.9742
  0
LINE
  8
0
 10
-90.8911
 20
-67.9742
 11
-92.3504
 21
-70.6213
  0
LINE
  8
0
 10
-89.3211
 20
-72.8332
 11
-81.4458
 21
-58.971
  0
LINE
  8
0
 10
-81.4458
 20
-58.971
 11
-81.0234
 21
-58.4304
  0
LINE
  8
0
 10
-81.0234
 20
-58.4304
 11
-79.5141
 21
-56.4986
  0
LINE
  8
0
 10
-79.5141
 20
-56.4986
 11
-79.4729
 21
-56.4458
  0
LINE
  8
0
 10
-79.4729
 20
-56.4458
 11
-79.4637
 21
-56.434
  0
LINE
  8
0
 10
-79.4637
 20
-56.434
 11
-80.1951
 21
-54.6317
  0
LINE
  8
0
 10
-80.1951
 20
-54.6317
 11
-83.2443
 21
-47.1174
  0
LINE
  8
0
 10
-83.2443
 20
-47.1174
 11
-82.1193
 21
-46.1735
  0
LINE
  8
0
 10
-82.1193
 20
-46.1735
 11
-79.3887
 21
-43.8822
  0
LINE
  8
0
 10
-79.3887
 20
-43.8822
 11
-79.1266
 21
-45.0303
  0
LINE
  8
0
 10
-79.1266
 20
-45.0303
 11
-77.9937
 21
-46.451
  0
LINE
  8
0
 10
-77.9937
 20
-46.451
 11
-77.9753
 21
-46.474
  0
LINE
  8
0
 10
-77.9753
 20
-46.474
 11
-77.9488
 21
-46.4868
  0
LINE
  8
0
 10
-77.9488
 20
-46.4868
 11
-76.3116
 21
-47.2752
  0
LINE
  8
0
 10
-76.3116
 20
-47.2752
 11
-74.4651
 21
-47.2752
  0
LINE
  8
0
 10
-74.4651
 20
-47.2752
 11
-72.8279
 21
-46.4868
  0
LINE
  8
0
 10
-72.8279
 20
-46.4868
 11
-72.8014
 21
-46.474
  0
LINE
  8
0
 10
-72.8014
 20
-46.474
 11
-71.6684
 21
-45.0533
  0
LINE
  8
0
 10
-71.6684
 20
-45.0533
 11
-71.6501
 21
-45.0303
  0
LINE
  8
0
 10
-71.6501
 20
-45.0303
 11
-71.6435
 21
-45.0016
  0
LINE
  8
0
 10
-71.6435
 20
-45.0016
 11
-71.2392
 21
-43.2301
  0
LINE
  8
0
 10
-71.2392
 20
-43.2301
 11
-71.6435
 21
-41.4585
  0
LINE
  8
0
 10
-71.6435
 20
-41.4585
 11
-71.6501
 21
-41.4298
  0
LINE
  8
0
 10
-71.6501
 20
-41.4298
 11
-71.6684
 21
-41.4068
  0
LINE
  8
0
 10
-71.6684
 20
-41.4068
 11
-72.8014
 21
-39.9861
  0
LINE
  8
0
 10
-72.8014
 20
-39.9861
 11
-74.4077
 21
-39.2125
  0
LINE
  8
0
 10
-74.4077
 20
-39.2125
 11
-73.723
 21
-38.3776
  0
LINE
  8
0
 10
-73.723
 20
-38.3776
 11
-73.723
 21
-38.3776
  0
LINE
  8
0
 10
-73.723
 20
-38.3776
 11
-76.1097
 21
-33.7287
  0
LINE
  8
0
 10
-76.1097
 20
-33.7287
 11
-77.7603
 21
-30.5137
  0
LINE
  8
0
 10
-77.7603
 20
-30.5137
 11
-78.3443
 21
-26.1545
  0
LINE
  8
0
 10
-78.3443
 20
-26.1545
 11
-79.9538
 21
-14.1413
  0
LINE
  8
0
 10
-79.9538
 20
-14.1413
 11
-80.2299
 21
-9.947
  0
LINE
  8
0
 10
-80.2299
 20
-9.947
 11
-80.3301
 21
-8.42499
  0
LINE
  8
0
 10
-80.3301
 20
-8.42499
 11
-80.3301
 21
8.42499
  0
LINE
  8
0
 10
-80.3301
 20
8.42499
 11
-80.2299
 21
9.947
  0
LINE
  8
0
 10
-80.2299
 20
9.947
 11
-79.9538
 21
14.1413
  0
LINE
  8
0
 10
-79.9538
 20
14.1413
 11
-78.3443
 21
26.1545
  0
LINE
  8
0
 10
-78.3443
 20
26.1545
 11
-77.7603
 21
30.5137
  0
LINE
  8
0
 10
-77.7603
 20
30.5137
 11
-76.9241
 21
34.5513
  0
LINE
  8
0
 10
-76.9241
 20
34.5513
 11
-76.6571
 21
35.8405
  0
LINE
  8
0
 10
-76.6571
 20
35.8405
 11
-75.8176
 21
38.7485
  0
LINE
  8
0
 10
-75.8176
 20
38.7485
 11
-75.2517
 21
40.7089
  0
LINE
  8
0
 10
-75.2517
 20
40.7089
 11
-74.6937
 21
40.0091
  0
LINE
  8
0
 10
-74.6937
 20
40.0091
 11
-74.6753
 21
39.9861
  0
LINE
  8
0
 10
-74.6753
 20
39.9861
 11
-74.6488
 21
39.9733
  0
LINE
  8
0
 10
-74.6488
 20
39.9733
 11
-73.0116
 21
39.1849
  0
LINE
  8
0
 10
-73.0116
 20
39.1849
 11
-71.1651
 21
39.1849
  0
LINE
  8
0
 10
-71.1651
 20
39.1849
 11
-71.1386
 21
39.1977
  0
LINE
  8
0
 10
-71.1386
 20
39.1977
 11
-69.5014
 21
39.9861
  0
LINE
  8
0
 10
-69.5014
 20
39.9861
 11
-69.483
 21
40.0091
  0
LINE
  8
0
 10
-69.483
 20
40.0091
 11
-68.3501
 21
41.4298
  0
LINE
  8
0
 10
-68.3501
 20
41.4298
 11
-68.3435
 21
41.4585
  0
LINE
  8
0
 10
-68.3435
 20
41.4585
 11
-67.9392
 21
43.2301
  0
LINE
  8
0
 10
-67.9392
 20
43.2301
 11
-68.3435
 21
45.0016
  0
LINE
  8
0
 10
-68.3435
 20
45.0016
 11
-68.3501
 21
45.0303
  0
LINE
  8
0
 10
-68.3501
 20
45.0303
 11
-69.483
 21
46.451
  0
LINE
  8
0
 10
-69.483
 20
46.451
 11
-69.5014
 21
46.474
  0
LINE
  8
0
 10
-69.5014
 20
46.474
 11
-69.5279
 21
46.4868
  0
LINE
  8
0
 10
-69.5279
 20
46.4868
 11
-71.1651
 21
47.2752
  0
LINE
  8
0
 10
-71.1651
 20
47.2752
 11
-73.0116
 21
47.2752
  0
LINE
  8
0
 10
-73.0116
 20
47.2752
 11
-73.4118
 21
47.0825
  0
LINE
  8
0
 10
-73.4118
 20
47.0825
 11
-72.4196
 21
50.5196
  0
LINE
  8
0
 10
-72.4196
 20
50.5196
 11
-67.4196
 21
55.5196
  0
LINE
  8
0
 10
-67.4196
 20
55.5196
 11
-61.8612
 21
58.9626
  0
LINE
  8
0
 10
-61.8612
 20
58.9626
 11
-60.4881
 21
59.8132
  0
LINE
  8
0
 10
-60.4881
 20
59.8132
 11
-48.4253
 21
59.8132
  0
LINE
  8
0
 10
-48.4253
 20
59.8132
 11
-45.913
 21
59.8132
  0
LINE
  8
0
 10
-45.913
 20
59.8132
 11
-43.558
 21
59.8132
  0
LINE
  8
0
 10
-43.558
 20
59.8132
 11
-42.964
 21
59.8132
  0
LINE
  8
0
 10
-42.964
 20
59.8132
 11
-30.8656
 21
59.8132
  0
LINE
  8
0
 10
-30.8656
 20
59.8132
 11
-27.6979
 21
59.8132
  0
LINE
  8
0
 10
-27.6979
 20
59.8132
 11
-27.6979
 21
59.8132
  0
LINE
  8
0
 10
-27.6979
 20
59.8132
 11
-27.6759
 21
59.8132
  0
LINE
  8
0
 10
-27.6759
 20
59.8132
 11
-26.2341
 21
61.9465
  0
LINE
  8
0
 10
-26.2341
 20
61.9465
 11
-25.77
 21
62.6332
  0
LINE
  8
0
 10
-25.77
 20
62.6332
 11
-14.4174
 21
62.6332
  0
LINE
  8
0
 10
-14.4174
 20
62.6332
 11
-14.3952
 21
62.6332
  0
LINE
  8
0
 10
-14.3952
 20
62.6332
 11
-10.0302
 21
62.6332
  0
LINE
  8
0
 10
-10.0302
 20
62.6332
 11
-8.72346
 21
61.7824
  0
LINE
  8
0
 10
-8.72346
 20
61.7824
 11
-8.72337
 21
61.7824
  0
LINE
  8
0
 10
-8.72337
 20
61.7824
 11
-5.69878
 21
59.8132
  0
LINE
  8
0
 10
-5.69878
 20
59.8132
 11
-5.69878
 21
59.8132
  0
LINE
  8
0
 10
-5.69878
 20
59.8132
 11
-2.26842
 21
59.8132
  0
LINE
  8
0
 10
-2.26842
 20
59.8132
 11
-2.34029
 21
59.723
  0
LINE
  8
0
 10
-2.34029
 20
59.723
 11
-2.35864
 21
59.7
  0
LINE
  8
0
 10
-2.35864
 20
59.7
 11
-2.36519
 21
59.6713
  0
LINE
  8
0
 10
-2.36519
 20
59.6713
 11
-2.76954
 21
57.8998
  0
LINE
  8
0
 10
-2.76954
 20
57.8998
 11
-2.36519
 21
56.1282
  0
LINE
  8
0
 10
-2.36519
 20
56.1282
 11
-2.35864
 21
56.0995
  0
LINE
  8
0
 10
-2.35864
 20
56.0995
 11
-2.34029
 21
56.0765
  0
LINE
  8
0
 10
-2.34029
 20
56.0765
 11
-1.20732
 21
54.6558
  0
LINE
  8
0
 10
-1.20732
 20
54.6558
 11
-1.18081
 21
54.643
  0
LINE
  8
0
 10
-1.18081
 20
54.643
 11
0.456373
 21
53.8546
  0
LINE
  8
0
 10
0.456373
 20
53.8546
 11
2.30294
 21
53.8546
  0
LINE
  8
0
 10
2.30294
 20
53.8546
 11
3.94012
 21
54.643
  0
LINE
  8
0
 10
3.94012
 20
54.643
 11
3.96664
 21
54.6558
  0
LINE
  8
0
 10
3.96664
 20
54.6558
 11
3.98498
 21
54.6788
  0
LINE
  8
0
 10
3.98498
 20
54.6788
 11
5.11795
 21
56.0995
  0
LINE
  8
0
 10
5.11795
 20
56.0995
 11
5.5223
 21
57.8711
  0
LINE
  8
0
 10
5.5223
 20
57.8711
 11
5.52885
 21
57.8998
  0
LINE
  8
0
 10
5.52885
 20
57.8998
 11
5.5223
 21
57.9285
  0
LINE
  8
0
 10
5.5223
 20
57.9285
 11
5.11795
 21
59.7
  0
LINE
  8
0
 10
5.11795
 20
59.7
 11
5.02774
 21
59.8132
  0
LINE
  8
0
 10
5.02774
 20
59.8132
 11
5.73439
 21
59.8132
  0
LINE
  8
0
 10
5.73439
 20
59.8132
 11
5.75973
 21
59.8132
  0
LINE
  8
0
 10
5.75973
 20
59.8132
 11
10.4507
 21
59.8132
  0
LINE
  8
0
 10
10.4507
 20
59.8132
 11
11.1154
 21
58.1612
  0
LINE
  8
0
 10
11.1154
 20
58.1612
 11
15.2789
 21
47.8132
  0
LINE
  8
0
 10
15.2789
 20
47.8132
 11
26.9896
 21
47.8132
  0
LINE
  8
0
 10
26.9896
 20
47.8132
 11
31.9392
 21
47.8132
  0
LINE
  8
0
 10
31.9392
 20
47.8132
 11
34.157
 21
47.8132
  0
LINE
  8
0
 10
34.157
 20
47.8132
 11
35.2433
 21
47.8132
  0
LINE
  8
0
 10
35.2433
 20
47.8132
 11
46.4556
 21
47.8132
  0
LINE
  8
0
 10
46.4556
 20
47.8132
 11
51.9515
 21
47.8132
  0
LINE
  8
0
 10
51.9515
 20
47.8132
 11
55.0563
 21
44.9906
  0
LINE
  8
0
 10
55.0563
 20
44.9906
 11
56.1853
 21
43.9642
  0
LINE
  8
0
 10
56.1853
 20
43.9642
 11
55.9163
 21
38.6183
  0
LINE
  8
0
 10
55.9163
 20
38.6183
 11
55.5695
 21
31.7271
  0
LINE
  8
0
 10
55.5695
 20
31.7271
 11
55.5695
 21
31.7271
  0
LINE
  8
0
 10
55.5695
 20
31.7271
 11
55.5695
 21
31.7271
  0
LINE
  8
0
 10
55.5695
 20
31.7271
 11
55.5661
 21
31.6595
  0
LINE
  8
0
 10
55.5661
 20
31.6595
 11
55.5652
 21
31.6405
  0
LINE
  8
0
 10
55.5652
 20
31.6405
 11
55.3164
 21
24.7493
  0
LINE
  8
0
 10
55.3164
 20
24.7493
 11
55.0136
 21
22.3412
  0
LINE
  8
0
 10
55.0136
 20
22.3412
 11
54.6127
 21
17.5821
  0
LINE
  8
0
 10
54.6127
 20
17.5821
 11
53.1117
 21
18.305
  0
LINE
  8
0
 10
53.1117
 20
18.305
 11
51.2652
 21
18.305
  0
LINE
  8
0
 10
51.2652
 20
18.305
 11
49.628
 21
17.5166
  0
LINE
  8
0
 10
49.628
 20
17.5166
 11
49.6015
 21
17.5038
  0
LINE
  8
0
 10
49.6015
 20
17.5038
 11
49.5831
 21
17.4808
  0
LINE
  8
0
 10
49.5831
 20
17.4808
 11
48.4501
 21
16.0601
  0
LINE
  8
0
 10
48.4501
 20
16.0601
 11
48.4436
 21
16.0314
  0
LINE
  8
0
 10
48.4436
 20
16.0314
 11
48.0392
 21
14.2598
  0
LINE
  8
0
 10
48.0392
 20
14.2598
 11
48.4436
 21
12.4882
  0
LINE
  8
0
 10
48.4436
 20
12.4882
 11
48.4501
 21
12.4595
  0
LINE
  8
0
 10
48.4501
 20
12.4595
 11
49.5831
 21
11.0389
  0
LINE
  8
0
 10
49.5831
 20
11.0389
 11
49.6015
 21
11.0158
  0
LINE
  8
0
 10
49.6015
 20
11.0158
 11
49.628
 21
11.0031
  0
LINE
  8
0
 10
49.628
 20
11.0031
 11
51.2652
 21
10.2147
  0
LINE
  8
0
 10
51.2652
 20
10.2147
 11
53.1117
 21
10.2147
  0
LINE
  8
0
 10
53.1117
 20
10.2147
 11
54.0294
 21
10.6566
  0
LINE
  8
0
 10
54.0294
 20
10.6566
 11
53.9423
 21
9.62245
  0
LINE
  8
0
 10
53.9423
 20
9.62245
 11
53.543
 21
4.8824
  0
LINE
  8
0
 10
53.543
 20
4.8824
 11
53.5415
 21
4.8643
  0
LINE
  8
0
 10
53.5415
 20
4.8643
 11
53.5384
 21
4.82777
  0
LINE
  8
0
 10
53.5384
 20
4.82777
 11
53.2823
 21
-1.15594
  0
LINE
  8
0
 10
53.2823
 20
-1.15594
 11
53.1809
 21
-3.525
  0
LINE
  8
0
 10
53.1809
 20
-3.525
 11
53.1809
 21
-20.475
  0
LINE
  8
0
 10
53.1809
 20
-20.475
 11
53.2823
 21
-22.8441
  0
LINE
  8
0
 10
53.2823
 20
-22.8441
 11
53.5384
 21
-28.8278
  0
LINE
  8
0
 10
53.5384
 20
-28.8278
 11
53.5415
 21
-28.8643
  0
LINE
  8
0
 10
53.5415
 20
-28.8643
 11
53.543
 21
-28.8824
  0
LINE
  8
0
 10
53.543
 20
-28.8824
 11
53.9423
 21
-33.6224
  0
LINE
  8
0
 10
53.9423
 20
-33.6224
 11
54.9665
 21
-45.7817
  0
LINE
  8
0
 10
54.9665
 20
-45.7817
 11
54.2285
 21
-46.5139
  0
LINE
  8
0
 10
54.2285
 20
-46.5139
 11
50.8305
 21
-49.885
  0
LINE
  8
0
 10
50.8305
 20
-49.885
 11
41.2752
 21
-49.885
  0
LINE
  8
0
 10
41.2752
 20
-49.885
 11
34.1064
 21
-49.885
  0
LINE
  8
0
 10
34.1064
 20
-49.885
 11
31.6509
 21
-49.885
  0
LINE
  8
0
 10
31.6509
 20
-49.885
 11
29.6833
 21
-49.885
  0
LINE
  8
0
 10
29.6833
 20
-49.885
 11
21.7757
 21
-49.885
  0
LINE
  8
0
 10
21.7757
 20
-49.885
 11
13.0454
 21
-49.885
  0
LINE
  8
0
 10
13.0454
 20
-49.885
 11
12.5629
 21
-50.6295
  0
LINE
  8
0
 10
12.5629
 20
-50.6295
 11
12.1228
 21
-51.3085
  0
LINE
  8
0
 10
12.1228
 20
-51.3085
 11
12.1245
 21
-51.3439
  0
LINE
  8
0
 10
12.1245
 20
-51.3439
 11
12.1797
 21
-52.5318
  0
LINE
  8
0
 10
12.1797
 20
-52.5318
 11
12.2145
 21
-53.2776
  0
LINE
  8
0
 10
12.2145
 20
-53.2776
 11
12.2172
 21
-53.3369
  0
LINE
  8
0
 10
12.2172
 20
-53.3369
 11
16.0797
 21
-53.3369
  0
LINE
  8
0
 10
16.0797
 20
-53.3369
 11
15.6083
 21
-54.3255
  0
LINE
  8
0
 10
15.6083
 20
-54.3255
 11
12.9919
 21
-59.8132
  0
LINE
  8
0
 10
12.9919
 20
-59.8132
 11
7.44548
 21
-59.8132
  0
LINE
  8
0
 10
7.44548
 20
-59.8132
 11
7.42071
 21
-59.8132
  0
LINE
  8
0
 10
7.42071
 20
-59.8132
 11
-5.69878
 21
-59.8132
  0
LINE
  8
0
 10
-5.69878
 20
-59.8132
 11
-13.6533
 21
-62.1225
  0
LINE
  8
0
 10
-13.6533
 20
-62.1225
 11
-13.4613
 21
-61.2815
  0
LINE
  8
0
 10
-13.4613
 20
-61.2815
 11
-13.4548
 21
-61.2528
  0
LINE
  8
0
 10
-13.4548
 20
-61.2528
 11
-13.4613
 21
-61.2241
  0
LINE
  8
0
 10
-13.4613
 20
-61.2241
 11
-13.8657
 21
-59.4525
  0
LINE
  8
0
 10
-13.8657
 20
-59.4525
 11
-14.9986
 21
-58.0318
  0
LINE
  8
0
 10
-14.9986
 20
-58.0318
 11
-15.017
 21
-58.0088
  0
LINE
  8
0
 10
-15.017
 20
-58.0088
 11
-16.6542
 21
-57.2204
  0
LINE
  8
0
 10
-16.6542
 20
-57.2204
 11
-16.6807
 21
-57.2076
  0
LINE
  8
0
 10
-16.6807
 20
-57.2076
 11
-18.5272
 21
-57.2076
  0
LINE
  8
0
 10
-18.5272
 20
-57.2076
 11
-18.5538
 21
-57.2204
  0
LINE
  8
0
 10
-18.5538
 20
-57.2204
 11
-20.1909
 21
-58.0088
  0
LINE
  8
0
 10
-20.1909
 20
-58.0088
 11
-21.3239
 21
-59.4295
  0
LINE
  8
0
 10
-21.3239
 20
-59.4295
 11
-21.3423
 21
-59.4525
  0
LINE
  8
0
 10
-21.3423
 20
-59.4525
 11
-21.3488
 21
-59.4812
  0
LINE
  8
0
 10
-21.3488
 20
-59.4812
 11
-21.7532
 21
-61.2528
  0
LINE
  8
0
 10
-21.7532
 20
-61.2528
 11
-21.3488
 21
-63.0243
  0
LINE
  8
0
 10
-21.3488
 20
-63.0243
 11
-21.3423
 21
-63.053
  0
LINE
  8
0
 10
-21.3423
 20
-63.053
 11
-21.3239
 21
-63.076
  0
LINE
  8
0
 10
-21.3239
 20
-63.076
 11
-20.1909
 21
-64.4967
  0
LINE
  8
0
 10
-20.1909
 20
-64.4967
 11
-20.1644
 21
-64.5095
  0
LINE
  8
0
 10
-20.1644
 20
-64.5095
 11
-19.8463
 21
-64.6627
  0
LINE
  8
0
 10
-19.8463
 20
-64.6627
 11
-27.4206
 21
-69.7448
  0
LINE
  8
0
 10
-27.4206
 20
-69.7448
 11
-31.5302
 21
-72.5021
  0
LINE
  8
0
 10
-31.5302
 20
-72.5021
 11
-32.3894
 21
-73.158
  0
LINE
  8
0
 10
-32.3894
 20
-73.158
 11
-32.3895
 21
-73.1581
  0
LINE
  8
0
 10
-32.3895
 20
-73.1581
 11
-34.0041
 21
-74.3905
  0
LINE
  8
0
 10
-34.0041
 20
-74.3905
 11
-34.0403
 21
-74.4307
  0
LINE
  8
0
 10
-34.0403
 20
-74.4307
 11
-40.1407
 21
-81.2059
  0
LINE
  8
0
 10
-40.1407
 20
-81.2059
 11
-43.4068
 21
-84.8333
  0
LINE
  8
0
 10
-43.4068
 20
-84.8333
 11
-43.0299
 21
-87.4854
  0
LINE
  8
0
 10
-43.0299
 20
-87.4854
 11
-42.7085
 21
-89.7474
  0
LINE
  8
0
 10
-42.7085
 20
-89.7474
 11
-47.1865
 21
-95.9109
  0
LINE
  8
0
 10
-47.1865
 20
-95.9109
 11
-53.2012
 21
-99.8956
  0
LINE
  8
0
 10
-53.2012
 20
-99.8956
 11
-57.2307
 21
-99.9499
  0
LINE
  8
0
 10
-57.2307
 20
-99.9499
 11
-57.2307
 21
-99.9499
  0
LINE
  8
0
 10
-57.2307
 20
-99.9499
 11
-67.781
 21
-90.7197
  0
LINE
  8
0
 10
-67.781
 20
-90.7197
 11
-70.2926
 21
-88.5224
  0
LINE
  8
0
 10
-70.2926
 20
-88.5224
 11
-71.609
 21
-87.8403
  0
LINE
  8
0
 10
-71.609
 20
-87.8403
 11
-76.0641
 21
-86.3093
  0
LINE
  8
0
 10
-76.0641
 20
-86.3093
 11
-81.0073
 21
-82.2607
  0
LINE
  8
0
 10
-81.0073
 20
-82.2607
 11
-89.0455
 21
-75.677
  0
LINE
  8
0
 10
-89.0455
 20
-75.677
 11
-89.0455
 21
-75.677
  0
LINE
  8
0
 10
-89.0455
 20
-75.677
 11
-89.3211
 21
-72.8332
  0
LINE
  8
0
 10
-77.0883
 20
-43.2301
 11
-76.2383
 21
-41.7578
  0
LINE
  8
0
 10
-76.2383
 20
-41.7578
 11
-74.5383
 21
-41.7578
  0
LINE
  8
0
 10
-74.5383
 20
-41.7578
 11
-73.6883
 21
-43.2301
  0
LINE
  8
0
 10
-73.6883
 20
-43.2301
 11
-74.5383
 21
-44.7023
  0
LINE
  8
0
 10
-74.5383
 20
-44.7023
 11
-76.2383
 21
-44.7023
  0
LINE
  8
0
 10
-76.2383
 20
-44.7023
 11
-77.0883
 21
-43.2301
  0
LINE
  8
0
 10
-73.7883
 20
43.2301
 11
-72.9383
 21
44.7023
  0
LINE
  8
0
 10
-72.9383
 20
44.7023
 11
-71.2383
 21
44.7023
  0
LINE
  8
0
 10
-71.2383
 20
44.7023
 11
-70.3883
 21
43.2301
  0
LINE
  8
0
 10
-70.3883
 20
43.2301
 11
-71.2383
 21
41.7578
  0
LINE
  8
0
 10
-71.2383
 20
41.7578
 11
-72.9383
 21
41.7578
  0
LINE
  8
0
 10
-72.9383
 20
41.7578
 11
-73.7883
 21
43.2301
  0
LINE
  8
0
 10
-19.304
 20
-61.2528
 11
-18.454
 21
-59.7805
  0
LINE
  8
0
 10
-18.454
 20
-59.7805
 11
-16.754
 21
-59.7805
  0
LINE
  8
0
 10
-16.754
 20
-59.7805
 11
-15.904
 21
-61.2528
  0
LINE
  8
0
 10
-15.904
 20
-61.2528
 11
-16.754
 21
-62.725
  0
LINE
  8
0
 10
-16.754
 20
-62.725
 11
-18.454
 21
-62.725
  0
LINE
  8
0
 10
-18.454
 20
-62.725
 11
-19.304
 21
-61.2528
  0
LINE
  8
0
 10
-0.320343
 20
57.8998
 11
0.529655
 21
59.372
  0
LINE
  8
0
 10
0.529655
 20
59.372
 11
2.22966
 21
59.372
  0
LINE
  8
0
 10
2.22966
 20
59.372
 11
3.07966
 21
57.8998
  0
LINE
  8
0
 10
3.07966
 20
57.8998
 11
2.22966
 21
56.4275
  0
LINE
  8
0
 10
2.22966
 20
56.4275
 11
0.529655
 21
56.4275
  0
LINE
  8
0
 10
0.529655
 20
56.4275
 11
-0.320343
 21
57.8998
  0
LINE
  8
0
 10
50.4884
 20
14.2598
 11
51.3384
 21
15.7321
  0
LINE
  8
0
 10
51.3384
 20
15.7321
 11
53.0384
 21
15.7321
  0
LINE
  8
0
 10
53.0384
 20
15.7321
 11
53.8884
 21
14.2598
  0
LINE
  8
0
 10
53.8884
 20
14.2598
 11
53.0384
 21
12.7876
  0
LINE
  8
0
 10
53.0384
 20
12.7876
 11
51.3384
 21
12.7876
  0
LINE
  8
0
 10
51.3384
 20
12.7876
 11
50.4884
 21
14.2598
  0
ENDSEC
  0
SECTION
  2
OBJECTS
  0
DICTIONARY
  0
ENDSEC
  0
EOF
