{
  "name": "Neohertz 32-bit Dactyl-Manuform 5x6",
  "vendorId": "0x1EDD",
  "productId": "0x1FF1",
  "matrix": {"rows": 10, "cols": 7},
  "layouts": {
    "keymap": [
        [
          {
            "y": 0.25
          },
          "0,5",
          "0,4",
          "0,3",
          "0,2",
          "0,1",
          "0,0",
          {
            "x": 5.5
          },
          "5,0",
          "5,1",
          "5,2",
          "5,3",
          "5,4",
          "5,5"
        ],
        [
          "1,5",
          "1,4",
          "1,3",
          "1,2",
          "1,1",
          "1,0",
          {
            "x": 5.5
          },
          "6,0",
          "6,1",
          "6,2",
          "6,3",
          "6,4",
          "6,5"
        ],
        [
          "2,5",
          "2,4",
          "2,3",
          "2,2",
          "2,1",
          "2,0",
          {
            "x": 5.5
          },
          "7,0",
          "7,1",
          "7,2",
          "7,3",
          "7,4",
          "7,5"
        ],
        [
          "3,5",
          "3,4",
          "3,3",
          "3,2",
          "3,1",
          "3,0",
          {
            "x": 5.5
          },
          "8,0",
          "8,1",
          "8,2",
          "8,3",
          "8,4",
          "8,5"
        ],
        [
          {
            "x": 2
          },
          "4,3",
          "4,2",
          {
            "x": 2
          },
          "4,1",
          "4,0",
          {
            "x": 1.5
          },
          "9,0",
          "9,1",
          {
            "x": 2
          },
          "9,2",
          "9,3"
        ],
        [
          {
            "r": 15,
            "rx": 5.25,
            "ry": 4,
            "y": 1.0099999999999998,
            "x": 1.75
          },
          "1,6",
          "4,6"
        ],
        [
          {
            "x": 1.75
          },
          "2,6",
          "3,6"
        ],
        [
          {
            "r": -15,
            "rx": 13.5,
            "y": 0.75,
            "x": -4.75
          },
          "9,6",
          "6,6"
        ],
        [
          {
            "x": -4.75
          },
          "8,6",
          "7,6"
        ]
      ]
    }
  }
